Creating denominator cohorts
…
With CDMConnector::cohortAttrition() we can see the
number of individuals in the database who were excluded from entering a
given denominator population along with the reason (such as missing
crucial information or not satisfying the sex or age criteria required,
among others):

cohortAttrition(cdm$denominator)
#> # A tibble: 72 × 7
#>    cohort_definition_id number_records number_subjects reason_id reason         
#>                   <int>          <dbl>           <dbl>     <dbl> <glue>         
#>  1                    1            500             500         1 Starting popul…
#>  2                    1            500             500         2 Missing year o…
#>  3                    1            500             500         3 Missing sex    
#>  4                    1            500             500         4 Cannot satisfy…
#>  5                    1            106             106         5 No observation…
#>  6                    1            106             106         6 Doesn't satisf…
#>  7                    1            106             106         7 Prior history …
#>  8                    1             50              50         8 Not Male       
#>  9                    1              5               5        10 No observation…
#> 10                    2            500             500         1 Starting popul…
#> # ℹ 62 more rows
#> # ℹ 2 more variables: excluded_records <dbl>, excluded_subjects <dbl>
…
