Calculating prevalence
…
prev <- estimatePeriodPrevalence(
  cdm = cdm,
  denominatorTable = "denominator",
  outcomeTable = "outcome",
  interval = "Years",
  fullContribution = c(TRUE, FALSE),
  minCellCount = 0,
  returnParticipants = TRUE
)
attrition(prev)
#> # A tibble: 22 × 25
#>    analysis_id number_records number_subjects reason_id reason  excluded_records
#>    <chr>       <chr>          <chr>               <int> <chr>   <chr>           
#>  1 1           20000          20000                   1 Starti… <NA>            
#>  2 1           20000          20000                   2 Missin… 0               
#>  3 1           20000          20000                   3 Missin… 0               
#>  4 1           20000          20000                   4 Cannot… 0               
#>  5 1           18490          18490                   5 No obs… 1510            
#>  6 1           18490          18490                   6 Doesn'… 0               
#>  7 1           18490          18490                   7 Prior … 0               
#>  8 1           18389          18389                  10 No obs… 101             
#>  9 1           18389          18389                  11 Starti… <NA>            
#> 10 1           18389          18389                  12 Not ob… 0               
#> # ℹ 12 more rows
#> # ℹ 19 more variables: excluded_subjects <chr>, outcome_cohort_id <int>,
#> #   outcome_cohort_name <chr>, analysis_type <chr>, analysis_interval <chr>,
#> #   analysis_complete_database_intervals <lgl>, analysis_time_point <chr>,
#> #   analysis_full_contribution <lgl>, analysis_min_cell_count <dbl>,
#> #   denominator_cohort_id <int>, denominator_cohort_name <chr>,
#> #   denominator_age_group <chr>, denominator_sex <chr>, …
…
