Calculating incidence
…
inc <- estimateIncidence(
  cdm = cdm,
  denominatorTable = "denominator",
  outcomeTable = "outcome",
  interval = c("Years"),
  outcomeWashout = c(0, 180),
  repeatedEvents = TRUE,
  temporary = FALSE,
  returnParticipants = TRUE
)
incidenceAttrition(inc)
#> # A tibble: 22 × 24
#>    analysis_id number_records number_subjects reason_id reason  excluded_records
#>    <chr>       <chr>          <chr>               <int> <chr>   <chr>           
#>  1 1           50000          50000                   1 Starti… <NA>            
#>  2 1           50000          50000                   2 Missin… 0               
#>  3 1           50000          50000                   3 Missin… 0               
#>  4 1           50000          50000                   4 Cannot… 0               
#>  5 1           18018          18018                   5 No obs… 31982           
#>  6 1           18018          18018                   6 Doesn'… 0               
#>  7 1           18018          18018                   7 Prior … 0               
#>  8 1           18018          18018                  10 No obs… 0               
#>  9 1           25886          18018                  11 Starti… <NA>            
#> 10 1           24509          18018                  12 Exclud… 1377            
#> # ℹ 12 more rows
#> # ℹ 18 more variables: excluded_subjects <chr>, outcome_cohort_id <chr>,
#> #   outcome_cohort_name <chr>, analysis_outcome_washout <dbl>,
#> #   analysis_repeated_events <lgl>, analysis_interval <chr>,
#> #   analysis_complete_database_intervals <lgl>, denominator_cohort_id <int>,
#> #   analysis_min_cell_count <dbl>, denominator_cohort_name <chr>,
#> #   denominator_age_group <chr>, denominator_sex <chr>, …
…
